src/tb_cache.vcd
$date
	Wed May 13 18:15:47 2026
$end
$version
	Icarus Verilog
$end
$timescale
	1ps
$end
$scope module tb_cache $end
$var wire 5 ! address [4:0] $end
$var wire 8 " cache_out [7:0] $end
$var wire 1 # hit $end
$var wire 1 $ led_unused1 $end
$var wire 1 % led_unused2 $end
$var wire 1 & led_unused5 $end
$var wire 3 ' line [2:0] $end
$var wire 1 ( miss $end
$var wire 8 ) ram_out [7:0] $end
$var wire 3 * state [2:0] $end
$var wire 1 + tag $end
$var wire 1 , tag_match $end
$var wire 1 - valid_bit $end
$var wire 1 . led_miss $end
$var wire 1 / led_mid $end
$var wire 1 0 led_hit $end
$var reg 1 1 clk $end
$var reg 1 2 reset $end
$var integer 32 3 i [31:0] $end
$upscope $end
$scope module tb_cache $end
$scope module dut $end
$var wire 1 4 END $end
$var wire 1 5 Miss $end
$var wire 1 6 Rwr $end
$var wire 1 7 c $end
$var wire 1 1 clk $end
$var wire 1 $ led_unused1 $end
$var wire 1 % led_unused2 $end
$var wire 1 & led_unused5 $end
$var wire 1 2 reset $end
$var wire 3 8 state_log [2:0] $end
$var wire 1 9 v $end
$var wire 1 : tag $end
$var wire 1 ; slow_rise $end
$var wire 3 < line [2:0] $end
$var wire 1 . led_miss $end
$var wire 1 / led_mid $end
$var wire 1 0 led_hit $end
$var wire 1 = blk $end
$var wire 1 > Twr $end
$var wire 1 ? Tout $end
$var wire 8 @ Ram2Cache [7:0] $end
$var wire 1 A Muxout $end
$var wire 1 B MuxSel $end
$var wire 1 C Mux1 $end
$var wire 1 D Dwr $end
$var wire 1 E Done $end
$var wire 1 F Cnt $end
$var wire 8 G Cache2out [7:0] $end
$var parameter 3 H RESET_ST $end
$var parameter 3 I ReadBlk $end
$var parameter 3 J ReadData $end
$var parameter 3 K ReadTag $end
$var parameter 3 L UpdateTag $end
$var parameter 32 M blockBits $end
$var parameter 32 N blockSize $end
$var parameter 32 O cacheLineBits $end
$var parameter 32 P cacheLines $end
$var parameter 32 Q cacheSize $end
$var parameter 32 R ramBits $end
$var parameter 32 S ramSize $end
$var parameter 32 T tagBits $end
$var reg 5 U address [4:0] $end
$var reg 1 V cnt_end $end
$var reg 1 C cnt_out $end
$var reg 3 W seq_idx [2:0] $end
$var reg 27 X slow_cnt [26:0] $end
$var reg 3 Y state [2:0] $end
$var reg 3 Z state_log_r [2:0] $end
$var reg 1 [ tag_mem0 $end
$var reg 1 \ tag_mem1 $end
$var reg 1 ] tag_mem2 $end
$var reg 1 ^ tag_mem3 $end
$var reg 1 _ tag_mem4 $end
$var reg 1 ` tag_mem5 $end
$var reg 1 a tag_mem6 $end
$var reg 1 b tag_mem7 $end
$var reg 2 c timer_hit [1:0] $end
$var reg 2 d timer_miss [1:0] $end
$upscope $end
$upscope $end
$enddefinitions $end
$comment Show the parameter values. $end
$dumpall
b1 T
b100000 S
b101 R
b10000 Q
b1000 P
b11 O
b10 N
b1 M
b11 L
b0 K
b1 J
b10 I
b100 H
$end
#0
$dumpvars
b0 d
b0 c
0b
0a
0`
0_
0^
0]
0\
0[
b100 Z
b100 Y
b0 X
b0 W
0V
b10110 U
bx G
0F
0E
0D
0C
0B
0A
b10111 @
0?
0>
0=
b11 <
0;
1:
x9
b100 8
07
06
05
04
bx 3
02
01
10
x/
1.
x-
0,
1+
b100 *
b10111 )
0(
b11 '
1&
1%
1$
0#
bx "
b10110 !
$end
#5000
0-
09
11
#10000
01
#15000
11
#20000
01
#25000
11
#30000
01
#35000
12
11
#40000
01
#45000
b1 X
11
#50000
01
#55000
1;
b1100110111111110011000000 X
11
#60000
01
#65000
b11000 )
b11000 @
1(
15
14
1V
1C
b0 8
b0 Z
1F
b0 *
b0 Y
0;
b0 X
11
#70000
01
#75000
1;
b1100110111111110011000000 X
b0 3
11
#80000
01
#85000
b10111 )
b10111 @
0(
05
0.
b11 d
04
0V
0C
b10 8
b10 Z
0F
1D
1B
b10 *
b10 Y
0;
b0 X
11
#90000
01
#95000
1;
b1100110111111110011000000 X
b1 3
11
#100000
01
#105000
b11000 )
b11000 @
1A
b10 d
14
1V
1C
0;
b0 X
11
#110000
01
#115000
1;
b1100110111111110011000000 X
b10 3
11
#120000
01
#125000
0/
b10111 "
b10111 G
b10111 )
b10111 @
0A
b1 d
04
0V
0C
b11 8
b11 Z
1>
0D
0B
b11 *
b11 Y
0;
b0 X
11
#130000
01
#135000
1;
b1100110111111110011000000 X
b11 3
11
#140000
01
#145000
b11000 )
b11000 @
1,
17
1?
0(
05
1-
19
1.
b0 d
14
1V
1C
1^
b0 8
b0 Z
1F
0>
b0 *
b0 Y
0;
b0 X
11
#150000
01
#155000
1;
b1100110111111110011000000 X
b100 3
11
#160000
01
#165000
b10111 )
b10111 @
04
0V
0C
b1 8
b1 Z
0F
1#
1E
b1 *
b1 Y
0;
b0 X
11
#170000
01
#175000
1;
b1100110111111110011000000 X
b101 3
11
#180000
01
#185000
b11000 )
b11000 @
00
b11 c
14
1V
1C
b0 8
b0 Z
1F
0#
0E
b0 *
b0 Y
b1 W
0;
b0 X
11
#190000
01
#195000
1;
b1100110111111110011000000 X
b110 3
11
#200000
01
#205000
b10111 )
b10111 @
b10 c
04
0V
0C
b1 8
b1 Z
0F
1#
1E
b1 *
b1 Y
0;
b0 X
11
#210000
01
#215000
1;
b1100110111111110011000000 X
b111 3
11
#220000
01
#225000
x/
bx "
bx G
b11100 )
b11100 @
0,
07
0?
1(
15
0-
09
b101 '
b101 <
b11 c
14
1V
1C
b0 8
b0 Z
1F
0#
0E
b0 *
b0 Y
b11010 !
b11010 U
b10 W
0;
b0 X
11
#230000
01
#235000
1;
b1100110111111110011000000 X
b1000 3
11
#240000
01
#245000
b11011 )
b11011 @
0(
05
0.
b11 d
b10 c
04
0V
0C
b10 8
b10 Z
0F
1D
1B
b10 *
b10 Y
0;
b0 X
11
#250000
01
#255000
1;
b1100110111111110011000000 X
b1001 3
11
#260000
01
#265000
b11100 )
b11100 @
1A
b10 d
b1 c
14
1V
1C
0;
b0 X
11
#270000
01
#275000
1;
b1100110111111110011000000 X
b1010 3
11
#280000
01
#285000
0/
b11011 "
b11011 G
b11011 )
b11011 @
0A
b1 d
10
b0 c
04
0V
0C
b11 8
b11 Z
1>
0D
0B
b11 *
b11 Y
0;
b0 X
11
#290000
01
#295000
1;
b1100110111111110011000000 X
b1011 3
11
#300000
01
#305000
b11100 )
b11100 @
1,
17
1?
0(
05
1-
19
1.
b0 d
14
1V
1C
1`
b0 8
b0 Z
1F
0>
b0 *
b0 Y
0;
b0 X
11
#310000
01
#315000
1;
b1100110111111110011000000 X
b1100 3
11
#320000
01
#325000
b11011 )
b11011 @
04
0V
0C
b1 8
b1 Z
0F
1#
1E
b1 *
b1 Y
0;
b0 X
11
#330000
01
#335000
1;
b1100110111111110011000000 X
b1101 3
11
#340000
01
#345000
b10111 "
b10111 G
b11000 )
b11000 @
b11 '
b11 <
00
b11 c
14
1V
1C
b0 8
b0 Z
1F
0#
0E
b0 *
b0 Y
b10110 !
b10110 U
b11 W
0;
b0 X
11
#350000
01
#355000
1;
b1100110111111110011000000 X
b1110 3
11
#360000
01
#365000
b10111 )
b10111 @
b10 c
04
0V
0C
b1 8
b1 Z
0F
1#
1E
b1 *
b1 Y
0;
b0 X
11
#370000
01
#375000
1;
b1100110111111110011000000 X
b1111 3
11
#380000
01
#385000
b11011 "
b11011 G
b11100 )
b11100 @
0(
05
1,
17
1?
b101 '
b101 <
b11 c
14
1V
1C
b0 8
b0 Z
1F
0#
0E
b0 *
b0 Y
b11010 !
b11010 U
b100 W
0;
b0 X
11
#390000
01
#395000
1;
b1100110111111110011000000 X
b10000 3
11
#400000
01
#405000
b11011 )
b11011 @
b10 c
04
0V
0C
b1 8
b1 Z
0F
1#
1E
b1 *
b1 Y
0;
b0 X
11
#410000
01
#415000
1;
b1100110111111110011000000 X
b10001 3
11
#420000
01
#425000
x/
bx "
bx G
b10010 )
b10010 @
1(
15
0,
07
0?
0-
09
b0 '
b0 <
b11 c
14
1V
1C
b0 8
b0 Z
1F
0#
0E
b0 *
b0 Y
b10000 !
b10000 U
b101 W
0;
b0 X
11
#430000
01
#435000
1;
b1100110111111110011000000 X
b10010 3
11
#440000
01
#445000
b10001 )
b10001 @
0(
05
0.
b11 d
b10 c
04
0V
0C
b10 8
b10 Z
0F
1D
1B
b10 *
b10 Y
0;
b0 X
11
#450000
01
#455000
1;
b1100110111111110011000000 X
b10011 3
11
#460000
01
#465000
b10010 )
b10010 @
1A
b10 d
b1 c
14
1V
1C
0;
b0 X
11
#470000
01
#475000
1;
b1100110111111110011000000 X
b10100 3
11
#480000
01
#485000
0/
b10001 "
b10001 G
b10001 )
b10001 @
0A
b1 d
10
b0 c
04
0V
0C
b11 8
b11 Z
1>
0D
0B
b11 *
b11 Y
0;
b0 X
11
#490000
01
#495000
1;
b1100110111111110011000000 X
b10101 3
11
#500000
01
#505000
b10010 )
b10010 @
1,
17
1?
0(
05
1-
19
1.
b0 d
14
1V
1C
1[
b0 8
b0 Z
1F
0>
b0 *
b0 Y
0;
b0 X
11
#510000
01
#515000
1;
b1100110111111110011000000 X
b10110 3
11
#520000
01
#525000
b10001 )
b10001 @
04
0V
0C
b1 8
b1 Z
0F
1#
1E
b1 *
b1 Y
0;
b0 X
11
#530000
01
#535000
1;
b1100110111111110011000000 X
b10111 3
11
#540000
01
#545000
x/
bx "
bx G
b100 )
b100 @
1(
15
0?
1A
0+
0:
0-
09
b1 '
b1 <
1=
00
b11 c
14
1V
1C
b0 8
b0 Z
1F
0#
0E
b0 *
b0 Y
b11 !
b11 U
b110 W
0;
b0 X
11
#550000
01
#555000
b1 X
b11000 3
11
